<svg width="719" height="875" viewBox="0 0 719 875" fill="none" xmlns="http://www.w3.org/2000/svg">
<path d="M10.8505 418.914C-44.4454 562.784 125.177 714.549 213.651 782.506C302.124 850.464 297 872.5 511 874.5C725 876.5 718 860.5 718 860.5V0.872559C335.182 19.7523 325.878 163.558 359.994 218.277C394.111 272.996 434.874 300.196 406.074 331.875C377.274 363.555 198.715 320.995 124.721 321.955C50.7273 322.915 24.1428 369.315 10.8505 418.914Z" fill="url(#paint0_linear)"/>
<path d="M79.3183 589.537L80.5245 589.165L530.675 450.521L529.437 449.896L220.418 294.079L220.175 294.588L79.3183 589.537ZM527.705 450.27L81.4083 587.727L220.926 295.581L527.705 450.27Z" fill="#E6E6E6"/>
<path d="M30.2119 528.163H142.301V617.714H30.2119V528.163Z" fill="white"/>
<path d="M28 619.947H144.513V525.929H28V619.947ZM140.09 615.48H32.4239V530.396H140.09V615.48Z" fill="#E6E6E6"/>
<path d="M466.699 406.81H578.788V496.361H466.699V406.81Z" fill="white"/>
<path d="M464.487 498.595H581V404.577H464.487V498.595ZM576.576 494.128H468.91V409.044H576.576V494.128Z" fill="#E6E6E6"/>
<path d="M156.292 248.233H268.381V337.785H156.292V248.233Z" fill="white"/>
<path d="M154.08 340.018H270.593V246H154.08V340.018ZM266.169 335.551H158.504V250.467H266.169V335.551Z" fill="#E6E6E6"/>
<path d="M197.98 280.464L226.693 293.288L197.98 305.553V280.464Z" fill="#FF995F"/>
<path d="M499.177 437.278H546.31V441.619H499.177V437.278Z" fill="#FF995F"/>
<path d="M499.177 449.416H546.31V453.757H499.177V449.416Z" fill="#FF995F"/>
<path d="M499.177 461.552H546.31V465.893H499.177V461.552Z" fill="#FF995F"/>
<path d="M105.03 579.071C101.676 579.071 98.9565 576.325 98.9565 572.938C98.9565 569.551 101.676 566.805 105.03 566.805C108.385 566.805 111.104 569.551 111.104 572.938C111.104 576.325 108.385 579.071 105.03 579.071Z" fill="#FF995F"/>
<path d="M86.2568 579.071C82.9023 579.071 80.183 576.325 80.183 572.938C80.183 569.551 82.9023 566.805 86.2568 566.805C89.6112 566.805 92.3306 569.551 92.3306 572.938C92.3306 576.325 89.6112 579.071 86.2568 579.071Z" fill="#FF995F"/>
<path d="M67.4832 579.071C64.1287 579.071 61.4094 576.325 61.4094 572.938C61.4094 569.551 64.1287 566.805 67.4832 566.805C70.8377 566.805 73.557 569.551 73.557 572.938C73.557 576.325 70.8377 579.071 67.4832 579.071Z" fill="#FF995F"/>
<path d="M364.007 514.335C363.402 513.211 363.049 511.968 362.972 510.691C362.895 509.415 363.097 508.137 363.562 506.948C364.027 505.758 364.745 504.686 365.664 503.808C366.584 502.929 367.684 502.264 368.885 501.86L370.313 481.925L382.523 479.846L380.115 507.971C380.652 510.054 380.414 512.264 379.446 514.182C378.477 516.1 376.846 517.593 374.86 518.377C372.875 519.162 370.673 519.183 368.673 518.439C366.673 517.694 365.012 516.234 364.007 514.335H364.007Z" fill="#A0616A"/>
<path d="M327.092 672.296L315.767 672.295L310.379 628.185L327.095 628.186L327.092 672.296Z" fill="#A0616A"/>
<path d="M329.981 668.562L307.678 668.561H307.677C303.907 668.561 300.292 670.073 297.626 672.765C294.961 675.456 293.463 679.107 293.463 682.913V683.38L329.981 683.381L329.981 668.562Z" fill="#26140A"/>
<path d="M364.044 672.296L352.718 672.295L347.331 628.185L364.046 628.186L364.044 672.296Z" fill="#A0616A"/>
<path d="M366.933 668.562L344.629 668.561H344.628C340.858 668.561 337.243 670.073 334.578 672.765C331.912 675.456 330.414 679.107 330.414 682.913V683.38L366.932 683.381L366.933 668.562Z" fill="#26140A"/>
<path d="M367.015 479.024L372.557 510.632L365.167 658.013H348.536L339.353 585.521L335.606 530.22L329.696 658.013L312.511 659.265L302.572 586.016L300.041 512.964L302.71 479.024H367.015Z" fill="#26140A"/>
<path d="M344.382 382.374L319.44 387.037L312.511 477.051C312.511 477.051 342.996 491.043 354.082 478.917C365.167 466.791 344.382 382.374 344.382 382.374Z" fill="#CCCCCC"/>
<path d="M295.883 400.563L319.44 387.038L322.673 449.068C322.673 449.068 323.597 521.825 305.121 521.825L291.264 517.161L298.655 456.53L295.883 400.563Z" fill="#26140A"/>
<path d="M372.557 394.966L344.382 382.374L341.149 436.942C341.149 436.942 331.911 509.699 361.472 512.497C361.472 512.497 369.786 513.43 373.481 506.901L367.938 452.799L372.557 394.966Z" fill="#26140A"/>
<path d="M367.015 397.765L372.557 394.966C372.557 394.966 375.329 394.966 376.253 396.832C377.176 398.697 388.731 452.799 388.731 452.799L381.661 503.315L367.938 496.64L370.794 454.431L367.015 397.765Z" fill="#26140A"/>
<path d="M305.955 520.732C306.646 519.66 307.095 518.448 307.272 517.182C307.448 515.916 307.348 514.626 306.977 513.403C306.606 512.18 305.975 511.055 305.127 510.105C304.279 509.155 303.235 508.405 302.068 507.907L302.205 487.92L290.196 484.874L290.396 513.102C289.697 515.136 289.761 517.358 290.577 519.347C291.392 521.337 292.902 522.955 294.819 523.895C296.737 524.836 298.93 525.033 300.983 524.45C303.035 523.867 304.804 522.544 305.955 520.732H305.955Z" fill="#A0616A"/>
<path d="M306.045 401.496L295.883 400.563C295.883 400.563 292.188 401.907 291.264 413.361C290.34 424.815 290.34 453.552 290.34 453.552L287.569 505.035H303.273L307.892 452.799L306.045 401.496Z" fill="#26140A"/>
<path d="M328.833 374.606C316.847 374.606 307.13 364.795 307.13 352.691C307.13 340.588 316.847 330.776 328.833 330.776C340.82 330.776 350.537 340.588 350.537 352.691C350.537 364.795 340.82 374.606 328.833 374.606Z" fill="#A0616A"/>
<path d="M332.069 357.164L332.369 351.959C332.439 350.746 332.069 349.056 330.868 349.144C329.848 349.218 327.575 349.62 327.273 349.296C326.144 348.081 323.815 349.321 322.596 348.198C322.086 347.727 321.858 346.897 321.193 346.708C320.734 346.644 320.267 346.751 319.881 347.01C318.821 347.616 317.642 347.98 316.428 348.077C315.821 348.117 315.214 347.992 314.67 347.716C314.126 347.439 313.666 347.021 313.336 346.504C313.236 346.244 313.076 346.011 312.87 345.825C312.612 345.689 312.317 345.642 312.03 345.692L308.289 345.939C308.152 343.923 308.448 341.901 309.156 340.011C309.865 338.121 310.969 336.408 312.393 334.989C314.228 333.313 316.319 331.947 318.585 330.943C321.121 329.708 323.706 328.587 326.341 327.581C329.226 326.475 332.248 325.494 335.33 325.65C338.412 325.805 341.594 327.313 342.992 330.091C344.007 329.626 344.855 328.856 345.419 327.885C345.591 328.122 345.709 328.395 345.765 328.683C345.821 328.971 345.814 329.268 345.744 329.553C345.674 329.838 345.543 330.104 345.36 330.333C345.178 330.561 344.947 330.746 344.686 330.875L348.073 329.558C348.736 330.624 346.763 331.906 347.28 333.052C347.447 333.344 347.689 333.585 347.98 333.75C349.479 334.725 350.78 335.98 351.813 337.447C353.185 339.546 353.643 342.107 353.978 344.599C354.722 350.141 354.824 356.343 351.31 360.666C350.911 361.156 345.286 369.441 344.709 369.691C342.757 370.534 344.454 367.871 342.886 369.316C341.656 370.449 342.863 365.393 341.209 366.218C340.567 366.507 339.856 366.603 339.162 366.493C338.467 366.383 337.82 366.072 337.297 365.597C336.788 365.061 337.443 362.797 338.189 360.748C338.331 360.357 338.376 359.938 338.321 359.526C338.265 359.113 338.11 358.721 337.87 358.384C337.629 358.046 337.31 357.773 336.941 357.589C336.571 357.405 336.163 357.315 335.751 357.327C333.887 357.385 332.056 357.385 332.069 357.164Z" fill="#26140A"/>
<path d="M240.181 684H422.296C422.492 684 422.679 683.922 422.818 683.782C422.956 683.643 423.034 683.453 423.034 683.256C423.034 683.058 422.956 682.869 422.818 682.729C422.679 682.59 422.492 682.511 422.296 682.511H240.181C239.986 682.511 239.798 682.59 239.66 682.729C239.521 682.869 239.444 683.058 239.444 683.256C239.444 683.453 239.521 683.643 239.66 683.782C239.798 683.922 239.986 684 240.181 684Z" fill="#CCCCCC"/>
<defs>
<linearGradient id="paint0_linear" x1="359" y1="1" x2="359" y2="877" gradientUnits="userSpaceOnUse">
<stop offset="0.692708" stop-color="#FFECE1"/>
<stop offset="1" stop-color="#FFECE1" stop-opacity="0"/>
</linearGradient>
</defs>
</svg>
