<svg width="1014" height="899" viewBox="0 0 1014 899" fill="none" xmlns="http://www.w3.org/2000/svg">
<path d="M707.149 428.887C762.445 576.534 592.823 732.284 504.349 802.026C415.876 871.767 360.892 924.661 204.939 885.872C48.9855 847.083 0 802.026 0 802.026V0C382.818 19.3754 392.122 166.826 358.006 222.982C323.889 279.138 283.126 307.052 311.926 339.563C340.726 372.074 519.285 328.397 593.279 329.383C667.273 330.368 693.857 377.985 707.149 428.887Z" fill="url(#paint0_linear)"/>
<g clip-path="url(#clip0)">
<path opacity="0.1" d="M373.736 687.427C563.359 687.427 717.079 683.168 717.079 677.914C717.079 672.661 563.359 668.402 373.736 668.402C184.113 668.402 30.3933 672.661 30.3933 677.914C30.3933 683.168 184.113 687.427 373.736 687.427Z" fill="#FF995F"/>
<g opacity="0.7">
<path opacity="0.7" d="M245.858 607.704H136.374V670.214H245.858V607.704Z" fill="#747474"/>
<path opacity="0.1" d="M208.196 618.575H174.913V625.823H208.196V618.575Z" fill="#4B3C34"/>
<path opacity="0.1" d="M204.035 619.481H179.073V624.917H204.035V619.481Z" fill="#4B3C34"/>
<path opacity="0.7" d="M357.094 607.704H247.61V670.214H357.094V607.704Z" fill="#747474"/>
<path opacity="0.1" d="M319.432 618.575H286.149V625.823H319.432V618.575Z" fill="#4B3C34"/>
<path opacity="0.1" d="M315.271 619.481H290.309V624.917H315.271V619.481Z" fill="#4B3C34"/>
<path opacity="0.7" d="M245.858 543.383H136.374V605.892H245.858V543.383Z" fill="#747474"/>
<path opacity="0.1" d="M208.196 554.254H174.913V561.501H208.196V554.254Z" fill="#4B3C34"/>
<path opacity="0.1" d="M204.035 555.16H179.073V560.595H204.035V555.16Z" fill="#4B3C34"/>
<path opacity="0.7" d="M357.094 543.383H247.61V605.892H357.094V543.383Z" fill="#747474"/>
<path opacity="0.1" d="M319.432 554.254H286.149V561.501H319.432V554.254Z" fill="#4B3C34"/>
<path opacity="0.1" d="M315.271 555.16H290.309V560.595H315.271V555.16Z" fill="#4B3C34"/>
<path opacity="0.7" d="M245.858 478.155H136.374V540.665H245.858V478.155Z" fill="#747474"/>
<path opacity="0.1" d="M208.196 489.026H174.913V496.274H208.196V489.026Z" fill="#4B3C34"/>
<path opacity="0.1" d="M204.035 489.932H179.073V495.368H204.035V489.932Z" fill="#4B3C34"/>
<path opacity="0.7" d="M357.094 478.155H247.61V540.665H357.094V478.155Z" fill="#747474"/>
<path opacity="0.1" d="M319.432 489.026H286.149V496.274H319.432V489.026Z" fill="#4B3C34"/>
<path opacity="0.1" d="M315.271 489.932H290.309V495.368H315.271V489.932Z" fill="#4B3C34"/>
<path opacity="0.7" d="M357.094 412.928H247.61V475.437H357.094V412.928Z" fill="#747474"/>
<path opacity="0.1" d="M319.432 423.799H286.149V431.046H319.432V423.799Z" fill="#4B3C34"/>
<path opacity="0.1" d="M315.271 424.705H290.309V430.141H315.271V424.705Z" fill="#4B3C34"/>
</g>
<g opacity="0.7">
<path opacity="0.7" d="M468.33 606.798H358.846V669.308H468.33V606.798Z" fill="#747474"/>
<path opacity="0.1" d="M430.668 617.669H397.385V624.917H430.668V617.669Z" fill="#4B3C34"/>
<path opacity="0.1" d="M426.507 618.575H401.545V624.011H426.507V618.575Z" fill="#4B3C34"/>
<path opacity="0.7" d="M579.566 606.798H470.082V669.308H579.566V606.798Z" fill="#747474"/>
<path opacity="0.1" d="M541.904 617.669H508.621V624.917H541.904V617.669Z" fill="#4B3C34"/>
<path opacity="0.1" d="M537.743 618.575H512.781V624.011H537.743V618.575Z" fill="#4B3C34"/>
<path opacity="0.7" d="M468.33 542.477H358.846V604.986H468.33V542.477Z" fill="#747474"/>
<path opacity="0.1" d="M430.668 553.348H397.385V560.596H430.668V553.348Z" fill="#4B3C34"/>
<path opacity="0.1" d="M426.507 554.254H401.545V559.69H426.507V554.254Z" fill="#4B3C34"/>
<path opacity="0.7" d="M579.566 542.477H470.082V604.986H579.566V542.477Z" fill="#747474"/>
<path opacity="0.1" d="M541.904 553.348H508.621V560.596H541.904V553.348Z" fill="#4B3C34"/>
<path opacity="0.1" d="M537.743 554.254H512.781V559.69H537.743V554.254Z" fill="#4B3C34"/>
<path opacity="0.7" d="M468.33 477.25H358.846V539.759H468.33V477.25Z" fill="#747474"/>
<path opacity="0.1" d="M430.668 488.121H397.385V495.368H430.668V488.121Z" fill="#4B3C34"/>
<path opacity="0.1" d="M426.507 489.026H401.545V494.462H426.507V489.026Z" fill="#4B3C34"/>
<path opacity="0.7" d="M579.566 477.25H470.082V539.759H579.566V477.25Z" fill="#747474"/>
<path opacity="0.1" d="M541.904 488.121H508.621V495.368H541.904V488.121Z" fill="#4B3C34"/>
<path opacity="0.1" d="M537.743 489.026H512.781V494.462H537.743V489.026Z" fill="#4B3C34"/>
<path opacity="0.7" d="M579.566 412.022H470.082V474.532H579.566V412.022Z" fill="#747474"/>
<path opacity="0.1" d="M541.904 422.893H508.621V430.141H541.904V422.893Z" fill="#4B3C34"/>
<path opacity="0.1" d="M537.743 423.799H512.781V429.235H537.743V423.799Z" fill="#4B3C34"/>
</g>
<path d="M208.362 830.111C227.813 830.111 243.581 827.353 243.581 823.951C243.581 820.549 227.813 817.791 208.362 817.791C188.911 817.791 173.143 820.549 173.143 823.951C173.143 827.353 188.911 830.111 208.362 830.111Z" fill="#FF995F"/>
<path d="M222.928 813.877C224.536 812.522 225.706 810.692 226.283 808.631C226.721 806.557 225.862 804.102 223.935 803.296C221.781 802.444 219.477 803.993 217.734 805.551C215.991 807.11 213.985 808.894 211.708 808.559C212.882 807.456 213.76 806.059 214.257 804.501C214.754 802.944 214.854 801.281 214.546 799.672C214.446 799.005 214.174 798.379 213.758 797.86C212.558 796.537 210.394 797.099 208.958 798.141C204.403 801.456 203.133 807.861 203.107 813.614C202.652 811.54 203.037 809.374 203.028 807.273C203.019 805.171 202.45 802.743 200.707 801.629C199.632 801.03 198.424 800.737 197.204 800.777C195.163 800.695 192.877 800.913 191.484 802.462C189.732 804.383 190.197 807.608 191.703 809.71C193.21 811.811 195.513 813.161 197.633 814.62C199.328 815.665 200.774 817.093 201.863 818.796C201.994 819.034 202.1 819.286 202.179 819.548H215.019C217.891 818.035 220.551 816.128 222.928 813.877Z" fill="#FF995F"/>
<path d="M640.317 555.839C640.245 555.153 640.008 554.497 639.627 553.93C639.246 553.363 638.733 552.905 638.136 552.596C637.633 552.374 637.093 552.26 636.546 552.259C636 552.258 635.459 552.371 634.955 552.59C634.452 552.81 633.997 553.132 633.616 553.538C633.236 553.944 632.938 554.424 632.741 554.952L613.288 597.286L608.908 763.978H615.915L618.543 597.657L639.949 558.467C640.336 557.653 640.465 556.733 640.317 555.839Z" fill="#4B3C34"/>
<path opacity="0.1" d="M954.055 801.629C948.316 806.817 942.137 811.459 935.592 815.499C935.49 815.648 935.375 815.787 935.25 815.915C934.555 816.525 933.729 816.954 932.841 817.166C911.136 829.677 886.673 836.175 861.826 836.027H380.252C325.072 830.157 291.404 822.375 291.404 813.832C291.404 807.209 311.619 801.04 346.426 795.876C350.035 795.333 353.798 794.807 357.716 794.3C360.128 793.986 362.595 793.684 365.117 793.394L369.4 792.878C372.577 792.503 375.838 792.138 379.184 791.781H379.455L382.959 791.419C385.919 791.102 388.941 790.803 392.024 790.513L394.266 790.305L399.986 789.779C403.7 789.435 407.495 789.106 411.372 788.792C414.59 788.532 417.86 788.272 421.182 788.013C454.868 785.431 493.704 783.483 535.965 782.224L548.035 781.798L552.099 781.707L560.683 781.508L564.125 781.436L567.742 781.363L570.317 781.318L582.404 781.118L588.614 781.028H589.884C604.57 780.847 619.53 780.753 634.764 780.747C664.877 780.747 694.078 781.119 721.905 781.825C737.881 782.224 753.369 782.731 768.37 783.347H768.51C811.761 785.105 850.474 787.696 882.514 790.912L883.101 790.975C891.325 791.799 899.112 792.678 906.416 793.584C913.292 794.436 919.747 795.333 925.738 796.248C927.814 796.565 929.828 796.891 931.79 797.208L932.29 797.298C940.593 798.685 947.88 800.098 954.055 801.629Z" fill="#FF995F"/>
<path d="M935.592 815.499C935.49 815.647 935.375 815.787 935.25 815.915C934.555 816.525 933.729 816.954 932.842 817.166C931.07 817.679 929.249 817.983 927.411 818.071H926.859C925.81 818.108 924.76 818.071 923.715 817.963C922.952 817.849 922.182 817.797 921.411 817.809H921.306C920.186 817.971 919.086 818.254 918.022 818.651C915.652 819.323 913.209 819.682 910.752 819.72H909.876C907.126 819.72 904.341 819.621 901.582 819.639C901.135 819.639 900.706 819.639 900.242 819.639C895.512 819.766 890.808 820.545 886.079 820.626H884.563C879.93 820.508 875.192 819.485 871.504 816.586C870.76 816.077 870.157 815.378 869.752 814.556C869.438 813.69 869.333 812.757 869.446 811.839C869.533 810.199 869.84 808.414 871.031 807.309C871.78 806.715 872.638 806.286 873.554 806.05C875.157 805.515 876.768 804.999 878.371 804.482C879.974 803.966 881.804 803.413 883.53 802.888L883.863 802.779L884.826 802.48L885.448 802.263C886.202 802.013 886.925 801.672 887.603 801.248C888.496 800.663 889.253 799.881 889.819 798.956C889.915 798.793 890.02 798.621 890.108 798.449C890.195 798.277 890.108 798.168 890.046 798.023C889.897 796.891 889.784 795.731 889.591 794.626C887.126 794.035 884.878 792.72 883.118 790.839C881.606 789.289 880.333 787.507 879.343 785.557C877.162 781.318 876.041 776.58 874.412 772.077C871.916 765.228 868.281 758.905 864.62 752.636C861.274 746.856 857.911 741.058 854.109 735.595C851.578 731.971 848.854 728.52 846.349 724.887C839.263 714.75 834.179 703.267 831.389 691.095C830.962 688.76 830.356 686.464 829.576 684.228C828.069 680.423 825.31 677.325 823.173 673.846C820.876 670.097 819.302 665.922 818.54 661.553C818.102 659.071 817.366 656.389 814.975 656.117L814.721 656.634C809.764 666.599 804.675 676.745 797.204 684.881C796.009 686.077 794.916 687.377 793.937 688.767C793.151 690.115 792.449 691.513 791.835 692.953C790.652 695.537 789.082 697.913 787.184 699.992C786.619 700.583 786.003 701.119 785.344 701.595C784.469 702.253 783.496 702.758 782.463 703.09C782.056 703.219 781.64 703.316 781.219 703.38C781.219 703.489 781.263 703.588 781.271 703.697C781.28 703.806 781.324 703.933 781.342 704.05C782.63 711.298 782.078 718.768 779.739 725.729C779.677 725.947 779.607 726.155 779.529 726.373C779.166 727.387 778.772 728.384 778.346 729.362C777.278 731.763 776.008 734.064 775.009 736.501C774.843 736.918 774.676 737.334 774.527 737.751C771.024 747.454 771.9 758.289 771.444 768.716C771.404 770.996 771.143 773.266 770.665 775.492C770.069 778.002 769.114 780.593 768.589 783.184C768.11 785.126 768.071 787.157 768.475 789.118L768.265 789.199C767.328 789.562 766.373 789.888 765.418 790.196V790.332C765.76 792.361 766.093 794.39 766.434 796.411C766.723 798.15 767.065 800.034 768.238 801.266C768.558 801.538 768.851 801.842 769.114 802.172C769.806 803.296 769.193 804.781 769.325 806.113C769.517 807.997 771.199 809.601 770.936 811.476C770.818 812.037 770.569 812.559 770.212 812.997C769.855 813.436 769.4 813.779 768.887 813.995C768.455 814.197 768.003 814.346 767.538 814.439L767.249 814.502C766.723 814.602 766.198 814.656 765.672 814.71C759.147 815.381 752.534 816.051 746.07 814.91C744.791 814.683 743.521 814.384 742.225 814.276C740.587 814.2 738.946 814.27 737.32 814.484C725.329 815.658 713.269 815.9 701.243 815.209C698.116 815.027 694.525 814.502 692.869 811.739C691.494 809.447 691.994 806.484 692.686 803.866C692.884 802.904 693.242 801.984 693.745 801.149C693.802 801.058 693.866 800.973 693.938 800.895C695.55 798.82 698.58 798.693 701.19 798.775L709.721 799.038C710.561 799.108 711.407 799.041 712.226 798.838C713.61 798.422 714.661 797.28 715.958 796.637C717.587 795.831 719.636 795.731 720.81 794.354L720.959 794.155C721.166 793.863 721.359 793.561 721.537 793.249C721.537 793.185 721.616 793.122 721.659 793.059C721.691 793.002 721.727 792.948 721.765 792.895C722.842 791.428 724.725 790.939 726.258 790.006C726.49 789.866 726.71 789.705 726.915 789.525L727.09 789.362C725.44 788.145 724 786.647 722.833 784.932C722.383 784.432 722.05 783.83 721.861 783.175C721.754 782.683 721.79 782.169 721.966 781.698C722.004 781.583 722.051 781.47 722.106 781.363L722.15 781.272C722.746 780.058 723.972 778.962 724.646 777.721C724.672 777.682 724.692 777.639 724.708 777.594C725.636 775.782 725.82 772.974 724.445 771.515C725.145 759.584 728.316 747.961 729.017 735.994C729.297 731.256 729.183 726.499 729.393 721.743C729.604 716.987 730.094 712.376 730.611 707.71C731.767 697.047 734.57 686.602 734.176 675.894C734.142 674.896 734.183 673.896 734.298 672.904C734.294 672.832 734.294 672.759 734.298 672.687C734.579 670.492 735.241 668.369 736.252 666.418C737.521 664.213 738.959 662.116 740.552 660.149C745.939 652.901 752.411 645.654 754.33 636.739C755.319 632.137 757.509 627.925 759.69 623.784C760.978 621.32 762.318 618.793 764.376 616.981C765.491 616.182 766.526 615.272 767.468 614.263C768.904 612.342 768.957 609.688 769.806 607.405C770.244 606.218 770.919 605.131 771.251 603.908C771.251 603.781 771.313 603.664 771.339 603.537C771.533 602.302 771.636 601.055 771.646 599.804C771.646 599.442 771.698 599.089 771.742 598.735C772.254 595.154 773.259 591.666 774.729 588.38C774.913 587.964 775.088 587.538 775.263 587.121C771.222 584.683 767.657 581.484 764.753 577.69C763.768 576.463 762.913 575.13 762.204 573.713C760.399 570.008 759.988 565.786 759.138 561.728C757.106 552.052 752.455 542.939 751.807 533.046C751.614 530.029 751.807 526.913 750.791 524.059C750.511 523.287 750.181 522.537 749.801 521.812C749.644 521.504 749.495 521.196 749.337 520.906L749.162 520.562L748.715 519.656L747.997 520.236C730.078 534.748 711.266 548.039 691.678 560.025L689.997 561.057C689.121 561.494 688.359 562.14 687.772 562.942C687.702 563.059 687.641 563.177 687.579 563.295C687.176 564.156 687.071 565.107 686.703 566.013C685.915 568.087 683.892 569.41 681.825 570.026C678.085 571.021 674.119 570.492 670.745 568.549C670.316 568.323 669.869 568.087 669.484 567.825C668.459 568.412 667.379 568.889 666.26 569.247C662.757 570.298 659.087 570.253 655.461 570.244C651.835 570.234 648.13 570.244 644.696 571.476C642.402 572.282 640.177 573.614 637.795 573.74C637.52 573.759 637.245 573.759 636.971 573.74C635.613 573.579 634.292 573.178 633.065 572.554L632.347 572.218C631.975 572.036 631.612 571.833 631.261 571.612C630.877 571.367 630.522 571.078 630.201 570.751C629.737 570.27 629.399 569.674 629.22 569.021C629.101 568.548 629.101 568.052 629.22 567.58C629.254 567.368 629.359 567.175 629.518 567.037C629.674 566.941 629.853 566.894 630.034 566.901C631.039 566.889 632.042 566.977 633.03 567.163C633.61 567.246 634.196 567.279 634.782 567.263H635.097C635.613 567.206 636.113 567.039 636.565 566.774C637.017 566.51 637.411 566.152 637.724 565.723C637.821 565.59 637.897 565.444 637.952 565.288C638.058 565.033 638.112 564.759 638.11 564.482C638.115 564.412 638.115 564.343 638.11 564.273C637.742 564.101 637.374 563.929 637.024 563.721C636.84 563.621 636.665 563.512 636.489 563.404L636.384 563.331C636.07 563.11 635.777 562.858 635.508 562.579C635.338 562.405 635.188 562.21 635.062 562C634.829 561.671 634.654 561.303 634.545 560.912C633.823 560.756 633.076 560.778 632.364 560.976C631.409 561.248 630.446 561.827 629.5 562.027C629.023 562.151 628.52 562.129 628.055 561.963C626.688 561.456 626.207 559.735 625.918 558.258C625.865 557.977 625.804 557.687 625.76 557.397C625.659 556.841 625.659 556.269 625.76 555.712C626.184 554.447 626.992 553.356 628.064 552.605L630.936 550.114L631.147 549.932C631.147 549.688 631.05 549.443 631.015 549.199C630.915 548.639 630.915 548.064 631.015 547.505C631.439 546.241 632.247 545.154 633.319 544.406L639.678 538.871C640.869 537.838 642.165 536.751 643.715 536.642C646.019 536.479 647.858 538.454 649.584 540.04C651.756 542.033 654.392 543.663 657.291 543.863C658.672 543.928 660.052 543.732 661.364 543.283L662.109 543.029C661.951 542.694 661.794 542.359 661.645 542.024C661.391 541.471 661.137 540.909 660.891 540.348C664.623 540.103 668.012 537.983 670.841 535.447C673.67 532.91 676.096 529.911 678.952 527.42C682.035 524.702 685.573 522.682 688.7 520.064C695.97 513.967 700.796 505.007 708.574 499.635C711.272 497.76 714.39 496.265 716.229 493.475C716.798 492.569 717.228 491.663 717.814 490.757C719.68 488.039 722.877 486.789 725.513 484.904C728.15 483.02 730.445 480.257 732.59 477.603C734.114 475.709 735.647 473.816 737.101 471.868C738.441 469.286 739.571 466.586 740.973 464.041C742.162 461.89 743.549 459.863 745.115 457.989C745.475 457.264 745.842 456.539 746.237 455.833C746.631 455.126 746.92 454.646 747.288 454.021C747.542 453.613 747.804 453.224 748.076 452.825C747.279 451.367 746.517 450.107 746.158 449.555L745.983 449.31C745.21 448.459 744.385 447.66 743.513 446.918C742.597 446.775 741.69 446.575 740.797 446.321C735.392 444.788 730.623 441.46 727.227 436.848C723.83 432.237 721.994 426.598 722.001 420.8C721.997 420.773 721.997 420.746 722.001 420.719C722.004 416.567 722.959 412.475 724.786 408.779C725.154 408.036 725.548 407.32 725.978 406.622C725.577 406.492 725.188 406.328 724.813 406.133C724.173 405.807 723.616 405.333 723.184 404.747C722.827 404.225 722.595 403.623 722.509 402.99C722.361 401.496 722.578 399.989 723.14 398.605C723.379 397.939 723.651 397.286 723.954 396.648C723.978 396.611 723.999 396.571 724.016 396.53C727.931 388.377 736.278 383.367 744.616 383.014C753.611 382.642 762.37 387.009 769.465 393.26C771.582 395.056 773.476 397.116 775.105 399.393C778.81 404.72 780.483 411.533 780.974 418.282C781.158 420.369 781.123 422.471 780.869 424.551C780.776 425.292 780.629 426.025 780.431 426.743C780.317 427.169 780.168 427.595 780.01 428.021C779.853 428.446 779.756 428.637 779.616 428.927V428.972C779.485 429.262 779.336 429.534 779.187 429.805L779.108 429.923L778.994 430.113C779.064 430.285 779.143 430.467 779.222 430.639C779.301 430.811 779.371 430.974 779.458 431.137H779.564C781.315 431.282 782.936 431.536 784.722 431.681C785.563 431.722 786.397 431.856 787.21 432.079C788.962 432.623 790.284 433.945 791.756 435.014C795.399 437.678 799.884 438.919 803.466 441.673C808.721 445.732 811.349 452.436 814.537 458.442C818.741 466.487 825.591 473.336 828.613 481.942C829.979 485.85 831.351 489.751 832.729 493.647C835.418 501.284 838.107 508.957 841.759 516.159C846.839 526.179 853.715 535.184 857.788 545.711C858.192 546.766 858.951 547.634 859.925 548.157C865.475 556.263 870.409 564.801 874.684 573.695C876.935 578.397 879.063 583.28 879.72 588.489C880.232 593.127 879.86 597.824 878.625 602.314C877.926 604.981 877.069 607.601 876.059 610.159C875.665 611.055 875.371 611.994 875.183 612.958C875.183 613.058 875.183 613.158 875.183 613.257C875.008 614.997 875.647 616.718 875.822 618.457C875.969 619.858 875.816 621.274 875.375 622.607C875.305 622.815 875.227 623.023 875.148 623.232C874.605 624.291 874.145 625.394 873.773 626.529C873.741 626.667 873.717 626.806 873.703 626.946C873.414 628.912 874.167 630.896 874.578 632.862C876.12 639.964 875.84 647.357 875.454 654.604C875.253 658.228 878.082 661.136 880.447 663.809C884.826 668.818 888.251 674.68 891.553 680.514C893.355 683.476 894.871 686.613 896.081 689.882C897.334 693.614 897.833 697.564 898.525 701.432C900.758 713.391 908.054 723.954 910.034 735.939C910.952 741.428 913.292 746.556 916.804 750.779C917.863 751.909 918.838 753.121 919.721 754.402C920.331 755.423 920.816 756.519 921.166 757.664C922.027 760.328 922.434 763.127 922.366 765.935C922.227 767.279 922.301 768.638 922.585 769.957C923.408 772.738 926.351 774.269 927.569 776.888C928.786 779.506 927.945 782.858 928.445 785.829C928.836 788.225 930.087 790.38 931.948 791.863C931.247 792.497 930.512 793.077 929.758 793.675C930.456 794.235 931.067 794.901 931.572 795.65C931.916 796.151 932.21 796.689 932.447 797.253C933.604 800.034 933.639 803.341 934.585 806.312C934.987 807.544 935.557 808.849 935.206 810.099C935.057 810.457 934.956 810.836 934.909 811.223C934.909 812.038 935.732 812.572 936.047 813.315C936.162 813.689 936.18 814.087 936.1 814.47C936.021 814.853 935.845 815.207 935.592 815.499Z" fill="url(#paint1_linear)"/>
<path d="M750.222 462.183C755.582 460.689 760.356 457.563 765.033 454.474L781.333 443.739C776.91 443.376 773.091 440.115 770.822 436.165C768.554 432.215 767.617 427.622 766.846 423.11C759.839 425.937 753.769 430.729 748.111 435.793C745.869 437.796 741.104 440.821 740.412 443.947C739.72 447.072 744.134 449.609 745.842 451.702C746.429 452.399 751.956 461.685 750.222 462.183Z" fill="#FBBEBE"/>
<path opacity="0.1" d="M750.222 462.183C755.582 460.689 760.356 457.563 765.033 454.474L781.333 443.739C776.91 443.376 773.091 440.115 770.822 436.165C768.554 432.215 767.617 427.622 766.846 423.11C759.839 425.937 753.769 430.729 748.111 435.793C745.869 437.796 741.104 440.821 740.412 443.947C739.72 447.072 744.134 449.609 745.842 451.702C746.429 452.399 751.956 461.685 750.222 462.183Z" fill="#4B3C34"/>
<path d="M661.154 550.856C658.281 552.378 655.224 553.937 652.01 553.719C649.12 553.529 646.483 551.907 644.311 549.923C642.559 548.347 640.755 546.381 638.451 546.544C636.91 546.653 635.614 547.731 634.422 548.755L628.072 554.254C627.004 554.997 626.196 556.077 625.769 557.334C625.643 558.187 625.694 559.057 625.918 559.889C626.207 561.356 626.688 563.068 628.055 563.567C629.421 564.065 630.91 562.996 632.355 562.588C633.238 562.355 634.165 562.372 635.04 562.639C635.914 562.905 636.702 563.41 637.322 564.101C637.838 564.626 638.149 565.329 638.197 566.076C638.197 567.716 636.446 568.794 634.834 568.875C633.222 568.957 631.681 568.413 630.087 568.513C629.991 568.501 629.893 568.508 629.799 568.535C629.706 568.562 629.619 568.608 629.543 568.671C629.467 568.733 629.404 568.811 629.357 568.899C629.311 568.987 629.282 569.084 629.272 569.184C629.173 569.756 629.215 570.345 629.394 570.896C629.574 571.447 629.884 571.942 630.297 572.336C631.129 573.122 632.098 573.737 633.152 574.148C634.378 574.775 635.7 575.173 637.059 575.326C639.748 575.507 642.218 573.967 644.766 573.07C648.2 571.874 651.896 571.838 655.522 571.847C659.148 571.856 662.827 571.91 666.304 570.86C669.781 569.809 673.083 567.48 674.441 564.011C674.601 563.687 674.654 563.317 674.59 562.96C674.455 562.578 674.194 562.258 673.854 562.054C668.967 558.312 666.987 553.764 661.487 551.074L661.154 550.856Z" fill="#FBBEBE"/>
<path opacity="0.1" d="M661.154 550.856C658.281 552.378 655.224 553.937 652.01 553.719C649.12 553.529 646.483 551.907 644.311 549.923C642.559 548.347 640.755 546.381 638.451 546.544C636.91 546.653 635.614 547.731 634.422 548.755L628.072 554.254C627.004 554.997 626.196 556.077 625.769 557.334C625.643 558.187 625.694 559.057 625.918 559.889C626.207 561.356 626.688 563.068 628.055 563.567C629.421 564.065 630.91 562.996 632.355 562.588C633.238 562.355 634.165 562.372 635.04 562.639C635.914 562.905 636.702 563.41 637.322 564.101C637.838 564.626 638.149 565.329 638.197 566.076C638.197 567.716 636.446 568.794 634.834 568.875C633.222 568.957 631.681 568.413 630.087 568.513C629.991 568.501 629.893 568.508 629.799 568.535C629.706 568.562 629.619 568.608 629.543 568.671C629.467 568.733 629.404 568.811 629.357 568.899C629.311 568.987 629.282 569.084 629.272 569.184C629.173 569.756 629.215 570.345 629.394 570.896C629.574 571.447 629.884 571.942 630.297 572.336C631.129 573.122 632.098 573.737 633.152 574.148C634.378 574.775 635.7 575.173 637.059 575.326C639.748 575.507 642.218 573.967 644.766 573.07C648.2 571.874 651.896 571.838 655.522 571.847C659.148 571.856 662.827 571.91 666.304 570.86C669.781 569.809 673.083 567.48 674.441 564.011C674.601 563.687 674.654 563.317 674.59 562.96C674.455 562.578 674.194 562.258 673.854 562.054C668.967 558.312 666.987 553.764 661.487 551.074L661.154 550.856Z" fill="#4B3C34"/>
<path d="M763.719 454.238C762.36 453.331 760.818 452.759 759.211 452.566C757.604 452.373 755.976 452.564 754.452 453.124C751.401 454.261 748.662 456.148 746.473 458.623C744.287 460.929 742.394 463.513 740.841 466.315C739.352 469.032 738.213 471.877 736.724 474.586C734.097 479.432 730.663 483.709 727.213 487.948C725.067 490.585 722.894 493.257 720.144 495.196C717.394 497.134 714.32 498.321 712.454 501.012C711.867 501.863 711.447 502.824 710.869 503.684C709.038 506.457 705.929 507.942 703.222 509.799C695.462 515.145 690.636 524.041 683.384 530.102C680.257 532.711 676.727 534.758 673.653 537.421C670.789 539.895 668.398 542.857 665.542 545.394C662.687 547.93 659.332 550.023 655.61 550.259C658.097 555.993 661.066 561.619 665.332 566.085C669.597 570.552 675.991 573.405 681.816 571.657C683.883 571.041 685.906 569.736 686.695 567.671C686.943 566.609 687.289 565.575 687.728 564.581C688.313 563.784 689.073 563.142 689.944 562.706C713.326 548.589 735.613 532.618 756.607 514.936C762.239 510.189 767.827 505.94 773.608 501.347C775.68 499.827 777.597 498.09 779.327 496.165C781.738 493.187 783.244 489.539 783.655 485.678C784.067 481.818 783.365 477.917 781.639 474.468C780.089 471.829 778.313 469.34 776.332 467.03C772.727 462.177 768.481 457.871 763.719 454.238Z" fill="#FF995F"/>
<path opacity="0.1" d="M763.719 454.238C762.36 453.331 760.818 452.759 759.211 452.566C757.604 452.373 755.976 452.564 754.452 453.124C751.401 454.261 748.662 456.148 746.473 458.623C744.287 460.929 742.394 463.513 740.841 466.315C739.352 469.032 738.213 471.877 736.724 474.586C734.097 479.432 730.663 483.709 727.213 487.948C725.067 490.585 722.894 493.257 720.144 495.196C717.394 497.134 714.32 498.321 712.454 501.012C711.867 501.863 711.447 502.824 710.869 503.684C709.038 506.457 705.929 507.942 703.222 509.799C695.462 515.145 690.636 524.041 683.384 530.102C680.257 532.711 676.727 534.758 673.653 537.421C670.789 539.895 668.398 542.857 665.542 545.394C662.687 547.93 659.332 550.023 655.61 550.259C658.097 555.993 661.066 561.619 665.332 566.085C669.597 570.552 675.991 573.405 681.816 571.657C683.883 571.041 685.906 569.736 686.695 567.671C686.943 566.609 687.289 565.575 687.728 564.581C688.313 563.784 689.073 563.142 689.944 562.706C713.326 548.589 735.613 532.618 756.607 514.936C762.239 510.189 767.827 505.94 773.608 501.347C775.68 499.827 777.597 498.09 779.327 496.165C781.738 493.187 783.244 489.539 783.655 485.678C784.067 481.818 783.365 477.917 781.639 474.468C780.089 471.829 778.313 469.34 776.332 467.03C772.727 462.177 768.481 457.871 763.719 454.238Z" fill="#4B3C34"/>
<path d="M726.083 790.314C724.55 791.22 722.667 791.727 721.589 793.195C721.239 793.666 721.003 794.218 720.626 794.671C719.461 796.085 717.394 796.148 715.774 796.954C714.477 797.588 713.426 798.766 712.051 799.138C711.229 799.34 710.38 799.407 709.537 799.337L701.024 799.074C698.326 798.993 695.164 799.138 693.597 801.411C693.087 802.245 692.725 803.165 692.528 804.129C691.871 806.729 691.337 809.674 692.712 811.957C694.359 814.674 697.967 815.227 701.076 815.408C713.088 816.096 725.133 815.853 737.11 814.683C738.73 814.469 740.365 814.399 741.997 814.475C743.294 814.584 744.564 814.883 745.842 815.109C752.298 816.242 758.902 815.58 765.418 814.91C766.519 814.855 767.605 814.616 768.633 814.203C769.144 813.987 769.597 813.646 769.952 813.209C770.308 812.772 770.555 812.252 770.673 811.694C770.945 809.828 769.255 808.242 769.071 806.367C768.939 805.044 769.552 803.568 768.852 802.444C768.589 802.113 768.296 801.81 767.976 801.538C766.802 800.279 766.46 798.44 766.171 796.719L764.639 787.415C764.596 786.759 764.336 786.138 763.903 785.657C763.581 785.417 763.209 785.259 762.817 785.195C756.143 783.637 749.302 785.059 742.672 785.929C739.26 786.446 735.808 786.625 732.363 786.463C730.874 786.364 730.296 786.183 729.183 787.188C728.071 788.194 727.475 789.471 726.083 790.314Z" fill="#4B3C34"/>
<path d="M887.252 801.511C886.081 802.189 884.825 802.698 883.521 803.024C880.082 804.063 876.648 805.147 873.221 806.277C872.309 806.51 871.453 806.936 870.707 807.527C869.516 808.614 869.209 810.389 869.122 812.056C869.008 812.975 869.113 813.908 869.428 814.774C869.839 815.587 870.441 816.279 871.18 816.785C875.104 819.857 880.228 820.808 885.15 820.808C890.073 820.808 894.96 819.947 899.882 819.811C905.829 819.648 911.934 820.518 917.654 818.797C918.745 818.379 919.88 818.093 921.035 817.945C921.802 817.933 922.57 817.984 923.329 818.099C926.397 818.413 929.494 818.121 932.456 817.238C933.347 817.034 934.177 816.608 934.874 815.997C935.218 815.689 935.464 815.28 935.58 814.824C935.696 814.368 935.675 813.886 935.522 813.442C935.206 812.709 934.401 812.174 934.392 811.368C934.433 810.981 934.531 810.602 934.681 810.245C935.04 809.003 934.462 807.708 934.059 806.485C932.929 802.988 933.113 798.966 931.09 795.931C929.066 792.896 925.353 791.646 921.823 791.166C918.954 790.746 916.037 790.832 913.196 791.419C909.999 792.126 907.012 793.602 903.876 794.545C900.238 795.627 896.436 795.999 892.665 795.641C890.16 795.423 891.019 795.831 890.169 798.005C889.567 799.455 888.549 800.679 887.252 801.511Z" fill="#4B3C34"/>
<path d="M747.296 449.618C761.325 449.618 772.697 437.856 772.697 423.346C772.697 408.836 761.325 397.074 747.296 397.074C733.268 397.074 721.896 408.836 721.896 423.346C721.896 437.856 733.268 449.618 747.296 449.618Z" fill="#FBBEBE"/>
<path d="M931.44 792.117C923.557 799.119 912.915 802.182 902.536 802.29C898.157 802.336 893.611 801.846 889.88 799.5C889.617 798.014 889.512 796.411 889.249 794.925C884.721 793.947 881.209 790.133 879.019 785.911C876.829 781.689 875.717 776.997 874.088 772.521C871.6 765.709 867.957 759.43 864.313 753.198C860.967 747.454 857.613 741.692 853.803 736.266C851.28 732.642 848.547 729.236 846.051 725.621C838.979 715.559 833.904 704.148 831.117 692.047C830.692 689.726 830.085 687.445 829.304 685.225C827.798 681.438 825.039 678.358 822.911 674.907C820.615 671.182 819.042 667.031 818.277 662.686C817.848 660.221 817.112 657.558 814.721 657.304C809.694 667.405 804.57 677.67 796.967 685.887C795.772 687.073 794.679 688.364 793.7 689.746C792.915 691.088 792.213 692.479 791.598 693.913C790.419 696.484 788.852 698.845 786.956 700.907C785.367 702.665 783.272 703.847 780.982 704.277C782.671 712.982 781.666 722.016 778.11 730.096C777.05 732.488 775.78 734.771 774.781 737.19C770.7 747.155 771.646 758.398 771.216 769.206C771.179 771.47 770.921 773.725 770.446 775.937C769.386 780.358 767.196 785.059 768.256 789.48C757.272 793.82 745.072 793.548 733.44 791.718C731.165 791.503 728.956 790.809 726.95 789.68C725.3 788.472 723.861 786.983 722.693 785.277C722.243 784.779 721.91 784.181 721.721 783.528C721.265 781.463 723.472 779.905 724.497 778.093C725.522 776.281 725.706 773.409 724.296 771.923C724.997 760.065 728.167 748.487 728.868 736.592C729.148 731.881 729.034 727.152 729.245 722.432C729.455 717.712 729.945 713.119 730.453 708.481C731.609 697.89 734.412 687.508 734.018 676.863C733.898 673.587 734.627 670.338 736.129 667.451C737.395 665.257 738.83 663.173 740.421 661.218C745.799 654.034 752.262 646.832 754.181 637.963C755.17 633.388 757.36 629.202 759.532 625.089C760.82 622.634 762.16 620.125 764.209 618.322C765.324 617.524 766.36 616.614 767.301 615.604C768.738 613.692 768.79 611.074 769.64 608.791C770.078 607.614 770.752 606.527 771.076 605.313C771.343 603.971 771.476 602.605 771.47 601.236C771.751 596.851 773.38 592.611 775.097 588.598C771.059 586.18 767.494 583.003 764.586 579.231C763.609 578.006 762.758 576.679 762.046 575.272C760.242 571.594 759.83 567.399 758.98 563.368C756.957 553.747 752.306 544.696 751.658 534.867C751.465 531.868 751.658 528.77 750.651 525.934C750.186 524.734 749.642 523.569 749.022 522.447C748.411 521.344 747.946 520.162 747.638 518.932C747.077 516.259 747.848 513.496 747.638 510.778C747.428 508.377 746.438 506.131 745.947 503.784C745.447 500.731 745.361 497.621 745.693 494.544C745.912 490.92 746.674 487.179 746.377 483.6C745.894 477.679 746.623 471.719 748.517 466.108C750.411 460.498 753.427 455.364 757.369 451.041L757.57 450.832C759.243 449.02 761.074 447.417 762.58 445.496C764.63 442.924 766.084 439.898 768.247 437.397C769.193 436.283 770.262 435.286 771.199 434.163C772.059 432.985 773.011 431.882 774.045 430.866C774.569 430.363 775.203 430 775.893 429.809C776.583 429.618 777.308 429.604 778.004 429.769C778.18 431.12 778.589 432.428 779.213 433.629C781.035 433.774 782.655 434.036 784.468 434.181C785.309 434.223 786.143 434.356 786.956 434.58C788.664 435.114 790.03 436.392 791.493 437.488C795.137 440.142 799.612 441.374 803.195 444.11C808.45 448.142 811.077 454.8 814.248 460.77C818.444 468.77 825.284 475.573 828.262 484.125L832.37 495.758C835.059 503.349 837.748 510.968 841.391 518.125C846.463 528.091 853.33 537.068 857.402 547.496C857.809 548.542 858.564 549.403 859.531 549.924C865.076 557.969 870.005 566.45 874.272 575.29C876.523 579.964 878.651 584.82 879.299 589.993C880.254 597.304 878.327 604.697 875.647 611.527C875.214 612.505 874.919 613.543 874.771 614.607C874.596 616.338 875.235 618.041 875.41 619.771C875.58 621.387 875.347 623.021 874.736 624.518C874.191 625.571 873.731 626.668 873.361 627.798C872.888 629.882 873.729 632.001 874.184 634.085C875.726 641.142 875.445 648.453 875.06 655.683C874.859 659.306 877.688 662.178 880.044 664.833C884.423 669.806 887.839 675.622 891.141 681.429C892.936 684.375 894.45 687.494 895.661 690.742C896.913 694.448 897.412 698.37 898.104 702.221C900.329 714.097 907.616 724.597 909.596 736.51C910.512 741.968 912.85 747.064 916.358 751.25C917.414 752.382 918.389 753.593 919.274 754.874C919.879 755.89 920.362 756.979 920.711 758.117C921.572 760.762 921.978 763.543 921.911 766.334C921.772 767.669 921.846 769.018 922.13 770.329C922.953 773.092 925.896 774.614 927.105 777.214C928.313 779.814 927.481 783.148 927.98 786.101C928.358 788.486 929.594 790.635 931.44 792.117Z" fill="#FF995F"/>
<path d="M666.409 542.703C663.536 544.225 660.48 545.783 657.265 545.566C654.375 545.376 651.738 543.754 649.566 541.77C647.815 540.194 646.01 538.228 643.707 538.391C642.165 538.5 640.869 539.578 639.678 540.601L633.328 546.1C632.259 546.843 631.451 547.924 631.024 549.181C630.899 550.033 630.949 550.904 631.173 551.735C631.462 553.203 631.944 554.915 633.31 555.413C634.676 555.912 636.165 554.843 637.611 554.435C638.493 554.202 639.421 554.219 640.295 554.485C641.169 554.751 641.957 555.257 642.577 555.948C643.093 556.473 643.405 557.176 643.453 557.923C643.453 559.563 641.701 560.641 640.089 560.722C638.478 560.804 636.936 560.26 635.342 560.36C635.246 560.347 635.148 560.355 635.055 560.382C634.961 560.409 634.874 560.455 634.798 560.517C634.722 560.58 634.659 560.657 634.613 560.746C634.566 560.834 634.537 560.93 634.528 561.03C634.429 561.602 634.471 562.191 634.65 562.742C634.829 563.293 635.139 563.789 635.552 564.183C636.384 564.969 637.353 565.583 638.408 565.995C639.633 566.621 640.955 567.02 642.314 567.172C645.003 567.354 647.473 565.814 650.022 564.917C653.455 563.721 657.151 563.685 660.777 563.694C664.404 563.703 668.082 563.757 671.559 562.706C675.037 561.655 678.339 559.327 679.696 555.857C679.857 555.534 679.909 555.164 679.845 554.806C679.71 554.425 679.45 554.104 679.109 553.9C674.222 550.159 672.243 545.611 666.742 542.921L666.409 542.703Z" fill="#FBBEBE"/>
<path d="M734.938 407.202C733.422 407.456 732.135 408.516 730.698 409.105C729.734 409.492 728.702 409.663 727.669 409.607C726.636 409.551 725.627 409.268 724.708 408.778C724.066 408.456 723.506 407.985 723.07 407.401C721.896 405.716 722.308 403.27 723.026 401.295C726.424 391.955 735.498 386.175 744.485 385.804C753.471 385.432 762.212 389.772 769.298 395.978C771.406 397.768 773.297 399.815 774.93 402.074C778.626 407.374 780.299 414.142 780.79 420.845C781.083 423.659 780.902 426.503 780.255 429.253C779.944 430.589 779.376 431.846 778.585 432.95C777.793 434.053 776.794 434.98 775.648 435.676C773.143 436.998 770.139 436.582 767.608 435.313C765.077 434.045 762.904 432.043 760.732 430.131C759.748 429.15 758.584 428.383 757.308 427.876C756.671 427.641 755.983 427.602 755.326 427.763C754.668 427.923 754.07 428.277 753.603 428.781C752.429 430.24 752.727 432.632 751.658 434.217C750.59 435.802 748.365 436.029 746.491 436.029C744.616 436.029 742.715 435.866 741.594 434.326C740.57 432.931 740.718 430.892 741.104 429.135C741.489 427.377 742.146 425.638 741.98 423.835C741.621 420.211 738.555 417.983 737.6 414.649C736.979 412.466 738.345 411.542 738.205 409.567C738.1 407.827 736.295 406.976 734.938 407.202Z" fill="#4B3C34"/>
<path opacity="0.1" d="M814.739 657.078V657.304C809.711 667.405 804.587 677.67 796.985 685.887C795.79 687.073 794.697 688.364 793.718 689.746C792.933 691.088 792.23 692.48 791.616 693.913C790.436 696.484 788.869 698.845 786.973 700.907L780.632 704.186L800.777 595.474L814.739 657.078Z" fill="#4B3C34"/>
<path opacity="0.1" d="M785.458 492.542C783.728 494.467 781.811 496.203 779.739 497.724C773.958 502.253 768.352 506.529 762.738 511.313C758.213 515.124 753.623 518.856 748.969 522.51C748.359 521.407 747.893 520.225 747.585 518.995C747.025 516.322 747.796 513.559 747.585 510.842C747.375 508.441 746.385 506.194 745.895 503.848C745.394 500.795 745.309 497.685 745.641 494.607C745.86 490.983 746.622 487.242 746.324 483.663C745.839 477.728 746.573 471.753 748.476 466.131C750.38 460.509 753.41 455.367 757.369 451.041L757.57 450.832C758.513 450.265 759.511 449.804 760.548 449.455C762.076 448.901 763.705 448.718 765.312 448.919C766.919 449.12 768.46 449.7 769.815 450.615C774.578 454.247 778.823 458.553 782.428 463.407C784.409 465.716 786.185 468.206 787.735 470.844C789.466 474.29 790.173 478.189 789.768 482.049C789.363 485.91 787.863 489.56 785.458 492.542Z" fill="#4B3C34"/>
<path d="M768.974 446.085C767.615 445.178 766.073 444.606 764.466 444.412C762.86 444.219 761.231 444.41 759.707 444.971C756.656 446.108 753.918 447.995 751.728 450.47C749.542 452.775 747.65 455.36 746.096 458.161C744.607 460.879 743.469 463.724 741.98 466.432C739.352 471.279 735.919 475.555 732.468 479.795C730.322 482.431 728.15 485.104 725.4 487.042C722.649 488.981 719.575 490.168 717.709 492.859C717.122 493.71 716.702 494.67 716.124 495.531C714.293 498.303 711.184 499.789 708.478 501.646C700.717 506.991 695.891 515.887 688.639 521.948C685.512 524.557 681.982 526.605 678.908 529.268C676.044 531.741 673.653 534.704 670.797 537.24C667.942 539.777 664.588 541.87 660.865 542.105C663.353 547.84 666.322 553.466 670.587 557.932C674.853 562.398 681.247 565.252 687.071 563.503C689.138 562.887 691.162 561.583 691.95 559.517C692.198 558.456 692.544 557.421 692.983 556.428C693.569 555.631 694.328 554.988 695.199 554.553C718.581 540.436 740.869 524.465 761.862 506.783C767.494 502.036 773.082 497.787 778.863 493.194C780.936 491.673 782.852 489.937 784.582 488.012C786.993 485.034 788.499 481.385 788.91 477.525C789.322 473.664 788.621 469.764 786.895 466.315C785.345 463.676 783.568 461.186 781.587 458.877C777.982 454.023 773.737 449.717 768.974 446.085Z" fill="#FF995F"/>
<g opacity="0.1">
<path opacity="0.1" d="M748.242 432.378C746.491 432.378 744.467 432.215 743.346 430.675C742.33 429.28 742.47 427.242 742.856 425.484C743.241 423.726 743.898 421.987 743.732 420.184C743.372 416.561 740.307 414.332 739.352 410.998C738.73 408.815 740.097 407.891 739.957 405.916C739.834 404.204 738.038 403.352 736.681 403.578C735.166 403.832 733.878 404.892 732.442 405.481C731.478 405.868 730.445 406.04 729.412 405.983C728.379 405.927 727.37 405.645 726.451 405.155C725.809 404.832 725.249 404.361 724.813 403.778C723.639 402.093 724.051 399.647 724.769 397.672C724.769 397.599 724.83 397.536 724.857 397.463C724.124 398.676 723.508 399.959 723.017 401.295C722.299 403.27 721.887 405.716 723.061 407.402C723.497 407.985 724.058 408.456 724.699 408.779C725.618 409.268 726.628 409.551 727.66 409.607C728.693 409.663 729.726 409.492 730.69 409.105C732.126 408.516 733.414 407.456 734.929 407.202C736.287 406.976 738.082 407.827 738.205 409.54C738.345 411.514 736.979 412.439 737.6 414.622C738.538 417.956 741.603 420.221 741.98 423.808C742.155 425.62 741.516 427.359 741.104 429.108C740.692 430.856 740.578 432.904 741.594 434.299C742.716 435.839 744.721 435.984 746.491 436.002C748.26 436.02 750.537 435.893 751.658 434.19C752.142 433.335 752.46 432.39 752.595 431.409C751.404 432.288 749.74 432.396 748.242 432.378Z" fill="#4B3C34"/>
<path opacity="0.1" d="M777.4 432.052C774.895 433.375 771.891 432.958 769.36 431.69C766.828 430.422 764.656 428.419 762.484 426.508C761.5 425.527 760.335 424.759 759.059 424.252C758.423 424.018 757.735 423.978 757.077 424.139C756.42 424.3 755.822 424.654 755.354 425.158C754.759 426.068 754.384 427.111 754.26 428.202C754.715 427.924 755.223 427.751 755.748 427.693C756.274 427.635 756.806 427.695 757.308 427.867C758.584 428.374 759.748 429.141 760.732 430.123C762.904 432.034 765.112 434.045 767.608 435.305C770.104 436.564 773.143 436.99 775.648 435.667C777.864 434.326 779.478 432.135 780.142 429.57C779.422 430.602 778.484 431.451 777.4 432.052Z" fill="#4B3C34"/>
</g>
<path d="M559.421 821.505C573.933 821.505 585.698 809.337 585.698 794.327C585.698 779.317 573.933 767.149 559.421 767.149C544.909 767.149 533.145 779.317 533.145 794.327C533.145 809.337 544.909 821.505 559.421 821.505Z" fill="#4B3C34"/>
<path opacity="0.1" d="M559.421 821.505C573.933 821.505 585.698 809.337 585.698 794.327C585.698 779.317 573.933 767.149 559.421 767.149C544.909 767.149 533.145 779.317 533.145 794.327C533.145 809.337 544.909 821.505 559.421 821.505Z" fill="#4B3C34"/>
<path d="M559.421 811.54C568.612 811.54 576.063 803.833 576.063 794.327C576.063 784.821 568.612 777.114 559.421 777.114C550.23 777.114 542.78 784.821 542.78 794.327C542.78 803.833 550.23 811.54 559.421 811.54Z" fill="#747474"/>
<path opacity="0.1" d="M559.421 811.54C568.612 811.54 576.063 803.833 576.063 794.327C576.063 784.821 568.612 777.114 559.421 777.114C550.23 777.114 542.78 784.821 542.78 794.327C542.78 803.833 550.23 811.54 559.421 811.54Z" fill="#4B3C34"/>
<path d="M539.276 751.748L556.513 792.062C556.77 792.667 557.189 793.182 557.719 793.549C558.25 793.915 558.871 794.117 559.509 794.13C560.147 794.144 560.776 793.968 561.32 793.624C561.865 793.28 562.303 792.782 562.583 792.189L583.07 749.03L539.276 751.748Z" fill="#4B3C34"/>
<path opacity="0.1" d="M539.276 751.748L556.513 792.062C556.77 792.667 557.189 793.182 557.719 793.549C558.25 793.915 558.871 794.117 559.509 794.13C560.147 794.144 560.776 793.968 561.32 793.624C561.865 793.28 562.303 792.782 562.583 792.189L583.07 749.03L539.276 751.748Z" fill="#4B3C34"/>
<path d="M395.633 821.505C410.145 821.505 421.909 809.337 421.909 794.327C421.909 779.317 410.145 767.149 395.633 767.149C381.121 767.149 369.357 779.317 369.357 794.327C369.357 809.337 381.121 821.505 395.633 821.505Z" fill="#4B3C34"/>
<path opacity="0.1" d="M395.633 821.505C410.145 821.505 421.909 809.337 421.909 794.327C421.909 779.317 410.145 767.149 395.633 767.149C381.121 767.149 369.357 779.317 369.357 794.327C369.357 809.337 381.121 821.505 395.633 821.505Z" fill="#4B3C34"/>
<path d="M395.633 811.54C404.824 811.54 412.274 803.833 412.274 794.327C412.274 784.821 404.824 777.114 395.633 777.114C386.442 777.114 378.991 784.821 378.991 794.327C378.991 803.833 386.442 811.54 395.633 811.54Z" fill="#747474"/>
<path opacity="0.1" d="M395.633 811.54C404.824 811.54 412.274 803.833 412.274 794.327C412.274 784.821 404.824 777.114 395.633 777.114C386.442 777.114 378.991 784.821 378.991 794.327C378.991 803.833 386.442 811.54 395.633 811.54Z" fill="#4B3C34"/>
<path d="M375.488 751.748L392.725 792.062C392.982 792.667 393.4 793.182 393.931 793.549C394.462 793.915 395.083 794.117 395.721 794.13C396.359 794.144 396.987 793.968 397.532 793.624C398.077 793.28 398.515 792.782 398.795 792.189L419.281 749.03L375.488 751.748Z" fill="#4B3C34"/>
<path opacity="0.1" d="M375.488 751.748L392.725 792.062C392.982 792.667 393.4 793.182 393.931 793.549C394.462 793.915 395.083 794.117 395.721 794.13C396.359 794.144 396.987 793.968 397.532 793.624C398.077 793.28 398.515 792.782 398.795 792.189L419.281 749.03L375.488 751.748Z" fill="#4B3C34"/>
<path d="M644.696 557.651C644.625 556.965 644.387 556.308 644.006 555.741C643.625 555.175 643.113 554.716 642.516 554.408C642.013 554.186 641.472 554.071 640.926 554.07C640.379 554.069 639.838 554.182 639.335 554.402C638.831 554.622 638.376 554.944 637.995 555.35C637.615 555.755 637.317 556.236 637.12 556.763L622.046 595.474L617.667 769.413H624.674L627.302 595.845L644.329 560.278C644.716 559.464 644.845 558.545 644.696 557.651Z" fill="#4B3C34"/>
<path d="M334.76 755.824L358.408 740.424L613.726 738.159L620.295 755.824H334.76Z" fill="#FF995F"/>
<path d="M334.76 772.132V755.825L624.919 752.926L624.639 763.978H340.015V772.132H334.76Z" fill="#4B3C34"/>
<path d="M371.546 831.017C386.058 831.017 397.822 818.849 397.822 803.839C397.822 788.829 386.058 776.661 371.546 776.661C357.034 776.661 345.27 788.829 345.27 803.839C345.27 818.849 357.034 831.017 371.546 831.017Z" fill="#4B3C34"/>
<path d="M371.546 821.052C380.737 821.052 388.188 813.346 388.188 803.839C388.188 794.333 380.737 786.626 371.546 786.626C362.355 786.626 354.905 794.333 354.905 803.839C354.905 813.346 362.355 821.052 371.546 821.052Z" fill="#747474"/>
<path d="M351.401 761.26L368.638 801.574C368.895 802.179 369.314 802.695 369.844 803.061C370.375 803.427 370.996 803.629 371.634 803.643C372.272 803.656 372.901 803.48 373.445 803.136C373.99 802.792 374.428 802.294 374.708 801.701L395.195 758.542L351.401 761.26Z" fill="#4B3C34"/>
<path d="M575.625 831.017C590.137 831.017 601.901 818.849 601.901 803.839C601.901 788.829 590.137 776.661 575.625 776.661C561.113 776.661 549.349 788.829 549.349 803.839C549.349 818.849 561.113 831.017 575.625 831.017Z" fill="#4B3C34"/>
<path d="M575.625 821.052C584.816 821.052 592.267 813.346 592.267 803.839C592.267 794.333 584.816 786.626 575.625 786.626C566.434 786.626 558.983 794.333 558.983 803.839C558.983 813.346 566.434 821.052 575.625 821.052Z" fill="#747474"/>
<path d="M555.48 761.26L572.717 801.574C572.974 802.179 573.392 802.695 573.923 803.061C574.454 803.427 575.075 803.629 575.713 803.643C576.351 803.656 576.979 803.48 577.524 803.136C578.069 802.792 578.507 802.294 578.787 801.701L599.274 758.542L555.48 761.26Z" fill="#4B3C34"/>
<path d="M477.089 684.708H367.605V747.218H477.089V684.708Z" fill="#747474"/>
<path opacity="0.1" d="M439.427 695.58H406.143V702.828H439.427V695.58Z" fill="#4B3C34"/>
<path opacity="0.1" d="M435.266 696.486H410.304V701.921H435.266V696.486Z" fill="#4B3C34"/>
<path d="M588.325 684.708H478.841V747.218H588.325V684.708Z" fill="#747474"/>
<path opacity="0.1" d="M550.663 695.58H517.379V702.828H550.663V695.58Z" fill="#4B3C34"/>
<path opacity="0.1" d="M546.502 696.486H521.54V701.921H546.502V696.486Z" fill="#4B3C34"/>
<path d="M477.089 620.387H367.605V682.897H477.089V620.387Z" fill="#747474"/>
<path opacity="0.1" d="M439.427 631.258H406.143V638.506H439.427V631.258Z" fill="#4B3C34"/>
<path opacity="0.1" d="M435.266 632.165H410.304V637.6H435.266V632.165Z" fill="#4B3C34"/>
<path d="M588.325 620.387H478.841V682.897H588.325V620.387Z" fill="#747474"/>
<path opacity="0.1" d="M550.663 631.258H517.379V638.506H550.663V631.258Z" fill="#4B3C34"/>
<path opacity="0.1" d="M546.502 632.165H521.54V637.6H546.502V632.165Z" fill="#4B3C34"/>
<path d="M477.089 555.16H367.605V617.669H477.089V555.16Z" fill="#747474"/>
<path opacity="0.1" d="M439.427 566.031H406.143V573.279H439.427V566.031Z" fill="#4B3C34"/>
<path opacity="0.1" d="M435.266 566.937H410.304V572.373H435.266V566.937Z" fill="#4B3C34"/>
<path d="M588.325 555.16H478.841V617.669H588.325V555.16Z" fill="#747474"/>
<path opacity="0.1" d="M550.663 566.031H517.379V573.279H550.663V566.031Z" fill="#4B3C34"/>
<path opacity="0.1" d="M546.502 566.937H521.54V572.373H546.502V566.937Z" fill="#4B3C34"/>
<path d="M588.325 489.933H478.841V552.442H588.325V489.933Z" fill="#747474"/>
<path opacity="0.1" d="M550.663 500.804H517.379V508.051H550.663V500.804Z" fill="#4B3C34"/>
<path opacity="0.1" d="M546.502 501.709H521.54V507.145H546.502V501.709Z" fill="#4B3C34"/>
</g>
<defs>
<linearGradient id="paint0_linear" x1="54" y1="-199.5" x2="359" y2="899" gradientUnits="userSpaceOnUse">
<stop stop-color="#FFECE1"/>
<stop offset="1" stop-color="#FFECE1" stop-opacity="0"/>
</linearGradient>
<linearGradient id="paint1_linear" x1="780.869" y1="820.726" x2="780.869" y2="383.032" gradientUnits="userSpaceOnUse">
<stop stop-color="#808080" stop-opacity="0.25"/>
<stop offset="0.54" stop-color="#808080" stop-opacity="0.12"/>
<stop offset="1" stop-color="#808080" stop-opacity="0.1"/>
</linearGradient>
<clipPath id="clip0">
<rect width="1002" height="590" fill="white" transform="translate(12 246)"/>
</clipPath>
</defs>
</svg>
